{
    "KPlugin": {
        "Category": "Window Management",
        "Description": "Resizes windows with a fast texture scale instead of updating contents",
        "Description[az]": "Pəncərənin ölçüsünü tərkiblərini yeniləmək əvəzinə teksturasını miqyaslamaqla dəyişir",
        "Description[ca]": "Redimensiona les finestres amb un escalat de textura ràpid en lloc d'actualitzar els continguts",
        "Description[cs]": "Změní velikost okna s využitím rychlého škálování textury místo aktualizace obsahu",
        "Description[es]": "Cambia el tamaño de las ventanas con un escalado de textura rápido en lugar de actualizar su contenido",
        "Description[fr]": "Redimensionne les fenêtres à l'aide d'une échelle texturée rapide au lieu de mettre à jour les contenus",
        "Description[ia]": "Redimensiona fenestras con un rapide scala de textura in vice de actualisar contentos",
        "Description[it]": "Ridimensiona le finestra con una scalatura rapida della trama invece di aggiornarne i contenuti",
        "Description[nl]": "Wijzigt vensterafmetingen met een snelle textuurschaling in plaats van het bijwerken van de inhoud",
        "Description[pl]": "Zmienia rozmiar okna metodą szybkiego skalowania tekstur zamiast uaktualniania zawartości",
        "Description[sl]": "Spremeni velikost oken s hitro teksturo, namesto da posodobil vsebine",
        "Description[sv]": "Ändrar storlek på fönster med en snabb strukturskalning istället för att uppdatera innehållet.",
        "Description[uk]": "Зміна розмірів вікон швидким масштабуванням текстур замість оновлення вмісту вікон",
        "Description[vi]": "Đổi cỡ cửa sổ với một sự đổi cỡ nhanh ở bề mặt, thay vì cập nhật nội dung",
        "Description[x-test]": "xxResizes windows with a fast texture scale instead of updating contentsxx",
        "Description[zh_CN]": "调整窗口时显示简易材质，不实时更新窗口内容",
        "EnabledByDefault": false,
        "Id": "resize",
        "License": "GPL",
        "Name": "Resize Window",
        "Name[az]": "Pəncərənin Ölçüsünü Dəyişmək",
        "Name[ca]": "Redimensionament de les finestres",
        "Name[cs]": "Změnit velikost okna",
        "Name[es]": "Cambiar tamaño de la ventana",
        "Name[fr]": "Redimensionner une fenêtre",
        "Name[ia]": "Redimensiona fenestra",
        "Name[it]": "Ridimensiona la finestra",
        "Name[nl]": "Afmeting venster aanpassen",
        "Name[pl]": "Zmiana rozmiaru okien",
        "Name[pt]": "Dimensionar a Janela",
        "Name[sl]": "Spremeni velikost okna",
        "Name[sv]": "Ändra fönsterstorlek",
        "Name[uk]": "Зміна розмірів вікон",
        "Name[vi]": "Đổi cỡ cửa sổ",
        "Name[x-test]": "xxResize Windowxx",
        "Name[zh_CN]": "窗口大小简易调整",
        "ServiceTypes": [
            "KWin/Effect"
        ]
    },
    "X-KDE-ConfigModule": "kwin_resize_config"
}
