{
    "KPlugin": {
        "Category": "Window Open/Close Animation",
        "Description": "Glide windows as they appear or disappear",
        "Description[az]": "Pəncərələrin süzülərək açılması və ya bağlanması",
        "Description[ca]": "Les finestres llisquen en aparèixer o desaparèixer",
        "Description[es]": "Deslizar las ventanas a medida que aparecen o desaparecen",
        "Description[fr]": "Faire glisser les fenêtres lorsqu'elles apparaissent ou disparaissent",
        "Description[ia]": "Glissa fenestras quando illes appare e disappare",
        "Description[it]": "Planata delle finestre quando appaiono o scompaiono",
        "Description[nl]": "Vensters laten glijden als ze verschijnen of verdwijnen",
        "Description[pl]": "Okna obracają się na zawiasie przy otwieraniu lub zamykaniu",
        "Description[sl]": "Okna drsijo, ko se pojavijo ali izginejo",
        "Description[sv]": "Glid fönster när de visas eller försvinner",
        "Description[uk]": "Ковзання вікон при появі або зникненні",
        "Description[vi]": "Lướt các cửa sổ khi chúng xuất hiện hoặc biến mất",
        "Description[x-test]": "xxGlide windows as they appear or disappearxx",
        "Description[zh_CN]": "窗口显示/隐藏时呈现滑翔过渡动效",
        "EnabledByDefault": false,
        "Id": "glide",
        "License": "GPL",
        "Name": "Glide",
        "Name[az]": "Sürüşmə",
        "Name[ca]": "Lliscament",
        "Name[cs]": "Klouzání",
        "Name[es]": "Planear",
        "Name[fr]": "Glisser",
        "Name[ia]": "Glissa",
        "Name[it]": "Plana",
        "Name[nl]": "Schuiven",
        "Name[pl]": "Obracanie na zawiasie",
        "Name[pt]": "Deslizar",
        "Name[sl]": "Drsanje",
        "Name[sv]": "Glid",
        "Name[uk]": "Плин",
        "Name[vi]": "Lướt",
        "Name[x-test]": "xxGlidexx",
        "Name[zh_CN]": "滑翔动效",
        "ServiceTypes": [
            "KWin/Effect"
        ]
    },
    "X-KDE-ConfigModule": "kwin_glide_config",
    "org.kde.kwin.effect": {
        "exclusiveGroup": "toplevel-open-close-animation"
    }
}
