{
    "KPlugin": {
        "Category": "Focus",
        "Description": "Darken inactive windows",
        "Description[az]": "Qeyri-aktiv pəncərələri tutqunlaşdırır",
        "Description[ca]": "Enfosqueix les finestres inactives",
        "Description[cs]": "Ztmavit neaktivní okna",
        "Description[es]": "Oscurece las ventanas inactivas",
        "Description[fr]": "Assombrir les fenêtres inactives",
        "Description[ia]": "Fenestras inactive obscurate",
        "Description[it]": "Scurisci le finestre inattive",
        "Description[nl]": "Maakt inactieve vensters donkerder",
        "Description[pl]": "Przyciemnia nieaktywne okna",
        "Description[sl]": "Potemni nedejavna okna",
        "Description[sv]": "Gör inaktiva fönster mörkare",
        "Description[uk]": "Затемнення неактивних вікон",
        "Description[vi]": "Làm tối các cửa sổ bất hoạt",
        "Description[x-test]": "xxDarken inactive windowsxx",
        "Description[zh_CN]": "非活动的窗口将会变暗",
        "EnabledByDefault": false,
        "Id": "diminactive",
        "License": "GPL",
        "Name": "Dim Inactive",
        "Name[az]": "Qeyri-aktivi qaraldın",
        "Name[ca]": "Enfosqueix les inactives",
        "Name[cs]": "Ztmavit neaktivní",
        "Name[es]": "Oscurecer inactivas",
        "Name[fr]": "Réglage inactif",
        "Name[ia]": "Dim Inactive",
        "Name[it]": "Scurisci le inattive",
        "Name[nl]": "Inactief dimmen",
        "Name[pl]": "Przyciemnienie nieaktywnych",
        "Name[pt]": "Escurecer as Inactivas",
        "Name[sl]": "Zatemni nedejavne",
        "Name[sv]": "Dämpa inaktiva",
        "Name[uk]": "Затемнення неактивних",
        "Name[vi]": "Làm tối bất hoạt",
        "Name[x-test]": "xxDim Inactivexx",
        "Name[zh_CN]": "非活动窗口变暗",
        "ServiceTypes": [
            "KWin/Effect"
        ]
    },
    "X-KDE-ConfigModule": "kwin_diminactive_config",
    "org.kde.kwin.effect": {
        "video": "https://files.kde.org/plasma/kwin/effect-videos/dim_inactive.mp4"
    }
}
