{
    "KPlugin": {
        "Category": "Appearance",
        "Description": "Sliding animation for Plasma popups",
        "Description[az]": "Sürüşən pəncərələrin animasiyalı peyda olması",
        "Description[ca]": "Animació de desplaçament per als missatges emergents del Plasma",
        "Description[cs]": "Animace klouzání vyskakovacích oken plasmy",
        "Description[es]": "Animación de deslizamiento para las ventanas emergentes de Plasma",
        "Description[fr]": "Animation de glissement pour les menus contextuels de Plasma",
        "Description[ia]": "Animation glissante pro popups de Plasma",
        "Description[it]": "Animazione di scivolamento delle finestre a comparsa di Plasma",
        "Description[nl]": "Schuivende animaties voor Plasma-popups",
        "Description[pl]": "Animuje wysuwanie paneli Plazmy",
        "Description[sl]": "Animacija drsenja za pogovorna okna",
        "Description[sv]": "Glidande animering av Plasmarutor",
        "Description[uk]": "Анімація з ковзанням для контекстних вікон Плазми",
        "Description[vi]": "Hiệu ứng động dạng trượt cho các ô bật lên Plasma",
        "Description[x-test]": "xxSliding animation for Plasma popupsxx",
        "Description[zh_CN]": "气泡显示/隐藏时呈现滑动动效",
        "EnabledByDefault": true,
        "Id": "slidingpopups",
        "License": "GPL",
        "Name": "Sliding popups",
        "Name[az]": "Ani pəncərə animasiyası",
        "Name[ca]": "Missatges emergents desplaçant-se",
        "Name[cs]": "Klouzající vyskakovací okna",
        "Name[es]": "Deslizar ventanas emergentes",
        "Name[fr]": "Annotations glissantes",
        "Name[ia]": "Popups glissante",
        "Name[it]": "Finestre a comparsa che scivolano",
        "Name[nl]": "Schuivende popups",
        "Name[pl]": "Wysuwanie paneli",
        "Name[sl]": "Drsni pojavi",
        "Name[sv]": "Glidande rutor",
        "Name[uk]": "Ковзні контекстні вікна",
        "Name[vi]": "Ô bật lên dạng trượt",
        "Name[x-test]": "xxSliding popupsxx",
        "Name[zh_CN]": "气泡滑动动效",
        "ServiceTypes": [
            "KWin/Effect"
        ]
    },
    "org.kde.kwin.effect": {
        "video": "https://files.kde.org/plasma/kwin/effect-videos/sliding_popups.mp4"
    }
}
